{
    "parent":"block/cube_all",
    "textures":{
        "particle":"realmshift:blocks/side_forged_endstone",
        "north":"realmshift:blocks/shifter_key_hole",
        "south":"realmshift:blocks/side_forged_endstone",
        "east":"realmshift:blocks/side_forged_endstone",
        "west":"realmshift:blocks/side_forged_endstone",
        "down":"realmshift:blocks/top_forged_endstone",
        "up":"realmshift:blocks/top_forged_endstone"
    }
}