{
    "type":"minecraft:crafting_shaped",
    "pattern":[
        "SSS",
        "SRS",
        "SSS"
    ],
    "key":{
        "S":{
            "item": "realmshift:forged_end_stone"
        },
        "R":{
            "item": "minecraft:redstone"
        }
    },
    "result":{
        "item": "realmshift:realm_igniter"
    }
}