{
    "variants": {
        "": [
        {
            "model":"realmshift:block/nemosil/stone0"
        },
        {
            "model":"realmshift:block/nemosil/stone1"
        }
        ]
    }
}
